^M:\PROGRAMMATION C++\GAUNTLETOK\PROJET1\DEBUG\COMMUN.OBJ|M:\PROGRAMMATION C++\GAUNTLETOK\PROJET1\DEBUG\GESTIONMENUS.OBJ|M:\PROGRAMMATION C++\GAUNTLETOK\PROJET1\DEBUG\JOUEUR.OBJ|M:\PROGRAMMATION C++\GAUNTLETOK\PROJET1\DEBUG\MAIN.OBJ|M:\PROGRAMMATION C++\GAUNTLETOK\PROJET1\DEBUG\MUSIQUES.OBJ|M:\PROGRAMMATION C++\GAUNTLETOK\PROJET1\DEBUG\NIVEAU.OBJ
C:\PROGRAM FILES (X86)\WINDOWS KITS\8.1\LIB\WINV6.3\UM\X86\KERNEL32.LIB
C:\PROGRAM FILES (X86)\WINDOWS KITS\8.1\LIB\WINV6.3\UM\X86\USER32.LIB
C:\PROGRAM FILES (X86)\WINDOWS KITS\8.1\LIB\WINV6.3\UM\X86\GDI32.LIB
C:\PROGRAM FILES (X86)\WINDOWS KITS\8.1\LIB\WINV6.3\UM\X86\WINSPOOL.LIB
C:\PROGRAM FILES (X86)\WINDOWS KITS\8.1\LIB\WINV6.3\UM\X86\COMDLG32.LIB
C:\PROGRAM FILES (X86)\WINDOWS KITS\8.1\LIB\WINV6.3\UM\X86\ADVAPI32.LIB
C:\PROGRAM FILES (X86)\WINDOWS KITS\8.1\LIB\WINV6.3\UM\X86\SHELL32.LIB
C:\PROGRAM FILES (X86)\WINDOWS KITS\8.1\LIB\WINV6.3\UM\X86\OLE32.LIB
C:\PROGRAM FILES (X86)\WINDOWS KITS\8.1\LIB\WINV6.3\UM\X86\OLEAUT32.LIB
C:\PROGRAM FILES (X86)\WINDOWS KITS\8.1\LIB\WINV6.3\UM\X86\UUID.LIB
C:\PROGRAM FILES (X86)\WINDOWS KITS\8.1\LIB\WINV6.3\UM\X86\ODBC32.LIB
C:\PROGRAM FILES (X86)\WINDOWS KITS\8.1\LIB\WINV6.3\UM\X86\ODBCCP32.LIB
M:\PROGRAMMATION C++\GAUNTLETOK\PROJET1\DEBUG\COMMUN.OBJ
M:\PROGRAMMATION C++\GAUNTLETOK\PROJET1\DEBUG\GESTIONMENUS.OBJ
M:\PROGRAMMATION C++\GAUNTLETOK\PROJET1\DEBUG\JOUEUR.OBJ
M:\PROGRAMMATION C++\GAUNTLETOK\PROJET1\DEBUG\MAIN.OBJ
M:\PROGRAMMATION C++\GAUNTLETOK\PROJET1\DEBUG\MUSIQUES.OBJ
M:\PROGRAMMATION C++\GAUNTLETOK\PROJET1\DEBUG\NIVEAU.OBJ
C:\WINDOWS\SYSTEM32\TZRES.DLL
C:\WINDOWS\GLOBALIZATION\SORTING\SORTDEFAULT.NLS
C:\PROGRAM FILES (X86)\MICROSOFT VISUAL STUDIO 12.0\VC\LIB\MSVCRTD.LIB
C:\PROGRAM FILES (X86)\MICROSOFT VISUAL STUDIO 12.0\VC\LIB\OLDNAMES.LIB
C:\PROGRAM FILES (X86)\WINDOWS KITS\8.1\LIB\WINV6.3\UM\X86\WINMM.LIB
